…
``` r
combined_results %>%
  group_by(state) %>%
  summarise(
            TD_rate = mean(TD / 500),
            Downs_rate = mean(Downs / 500),
            Punt_rate = mean(Punt / 500),
            FG_rate = mean(FG/500)) %>%
  ungroup() %>%
  arrange(desc(TD_rate))
```

    ## # A tibble: 58 × 5
    ##    state      TD_rate Downs_rate Punt_rate FG_rate
    ##    <chr>        <dbl>      <dbl>     <dbl>   <dbl>
    ##  1 4_short_1    0.478      0.476     0       0.01 
    ##  2 4_short_2    0.38       0.508     0       0.04 
    ##  3 4_short_3    0.346      0.462     0       0.102
    ##  4 4_short_4    0.28       0.416     0       0.108
    ##  5 4_short_5    0.26       0.412     0.002   0.094
    ##  6 4_middle_1   0.246      0.692     0       0    
    ##  7 4_short_6    0.244      0.35      0.004   0.136
    ##  8 4_middle_2   0.234      0.66      0       0.002
    ##  9 4_middle_3   0.208      0.528     0       0.016
    ## 10 4_short_8    0.206      0.406     0.176   0.086
    ## # ℹ 48 more rows
…
``` r
combined_results %>%
  group_by(state) %>%
  summarise(
            TD_rate = mean(TD / 500),
            Downs_rate = mean(Downs / 500),
            Punt_rate = mean(Punt / 500),
            FG_rate = mean(FG/500)) %>%
  ungroup() %>%
  arrange(desc(TD_rate))
```

    ## # A tibble: 56 × 5
    ##    state       TD_rate Downs_rate Punt_rate FG_rate
    ##    <chr>         <dbl>      <dbl>     <dbl>   <dbl>
    ##  1 4_short_1     0.262      0.14      0.17    0.078
    ##  2 4_short_13    0.23       0.1       0.206   0.106
    ##  3 4_middle_19   0.228      0.082     0.22    0.108
    ##  4 4_middle_3    0.226      0.088     0.206   0.126
    ##  5 4_middle_4    0.226      0.088     0.206   0.126
    ##  6 4_long_3      0.218      0.09      0.206   0.126
    ##  7 4_short_4     0.216      0.102     0.228   0.096
    ##  8 4_short_7     0.216      0.112     0.206   0.102
    ##  9 4_long_6      0.212      0.104     0.2     0.106
    ## 10 4_middle_6    0.212      0.12      0.182   0.112
    ## # ℹ 46 more rows
…
